{
  "project_info": {
    "project_number": "1080127722702",
    "firebase_url": "https://helpmehelpyou-d5d86.firebaseio.com",
    "project_id": "helpmehelpyou-d5d86",
    "storage_bucket": "helpmehelpyou-d5d86.appspot.com"
  },
  "client": [
    {
      "client_info": {
        "mobilesdk_app_id": "1:1080127722702:android:dca740d9d68f7147baec9f",
        "android_client_info": {
          "package_name": "com.vrasic.helpmehelpyou"
        }
      },
      "oauth_client": [
        {
          "client_id": "1080127722702-28hc2ech6rl20v3dri72dbl2p4d47ac5.apps.googleusercontent.com",
          "client_type": 3
        }
      ],
      "api_key": [
        {
          "current_key": "AIzaSyDUJafMbqYFqvJDXk5ImpFJUOz945TYiwo"
        }
      ],
      "services": {
        "appinvite_service": {
          "other_platform_oauth_client": [
            {
              "client_id": "1080127722702-28hc2ech6rl20v3dri72dbl2p4d47ac5.apps.googleusercontent.com",
              "client_type": 3
            }
          ]
        }
      }
    }
  ],
  "configuration_version": "1"
}